<svg width="82" height="82" viewBox="0 0 82 82" fill="none" xmlns="http://www.w3.org/2000/svg">
<circle cx="41" cy="41" r="41" fill="#E01205"/>
<g clip-path="url(#clip0)">
<path d="M43.7485 41.0246L55.4299 29.3428C56.1901 28.583 56.1901 27.3544 55.4299 26.5945C54.67 25.8347 53.4415 25.8347 52.6816 26.5945L40.9998 38.2763L29.3184 26.5945C28.5582 25.8347 27.33 25.8347 26.5702 26.5945C25.8099 27.3544 25.8099 28.583 26.5702 29.3428L38.2516 41.0246L26.5702 52.7063C25.8099 53.4662 25.8099 54.6947 26.5702 55.4546C26.9488 55.8336 27.4467 56.024 27.9443 56.024C28.4418 56.024 28.9394 55.8336 29.3184 55.4546L40.9998 43.7728L52.6816 55.4546C53.0606 55.8336 53.5582 56.024 54.0557 56.024C54.5533 56.024 55.0508 55.8336 55.4299 55.4546C56.1901 54.6947 56.1901 53.4662 55.4299 52.7063L43.7485 41.0246Z" fill="white"/>
</g>
<defs>
<clipPath id="clip0">
<rect width="30" height="30" fill="white" transform="translate(26 26)"/>
</clipPath>
</defs>
</svg>
