<svg width="17" height="17" viewBox="0 0 17 17" fill="none" xmlns="http://www.w3.org/2000/svg">
<path d="M16.4254 3.34838L11.2745 8.49981L16.4254 13.651C17.1915 14.4174 17.1915 15.659 16.4254 16.4255C16.0426 16.8083 15.5407 16.9998 15.039 16.9998C14.5365 16.9998 14.0346 16.8086 13.652 16.4255L8.50002 11.2737L3.34839 16.4254C2.96562 16.8082 2.46368 16.9998 1.96158 16.9998C1.45964 16.9998 0.958031 16.8085 0.574921 16.4254C-0.19125 15.6593 -0.19125 14.4177 0.574921 13.6509L5.72567 8.49976L0.574628 3.34838C-0.191543 2.58222 -0.191543 1.34036 0.574628 0.574188C1.34065 -0.191396 2.58178 -0.191396 3.3481 0.574188L8.49998 5.72561L13.6515 0.574188C14.4179 -0.191396 15.6592 -0.191396 16.4251 0.574188C17.1915 1.34036 17.1915 2.58222 16.4254 3.34838Z" fill="white"/>
</svg>
