<svg width="1000" height="1000" viewBox="0 0 1000 1000" fill="none" xmlns="http://www.w3.org/2000/svg">
<rect x="266.875" y="481.614" width="459.655" height="134.694" fill="#037653"/>
<path d="M749.136 632.319C749.136 665.469 742.607 698.294 729.921 728.921C717.235 759.548 698.641 787.376 675.2 810.816C651.759 834.257 623.931 852.851 593.305 865.537C562.678 878.223 529.853 884.752 496.703 884.752C463.553 884.752 430.727 878.223 400.101 865.537C369.474 852.851 341.646 834.257 318.206 810.816C294.765 787.376 276.171 759.548 263.485 728.921C250.799 698.294 244.27 665.469 244.27 632.319L411.928 632.319C411.928 643.452 414.12 654.476 418.381 664.761C422.641 675.046 428.886 684.392 436.758 692.264C444.63 700.136 453.975 706.381 464.261 710.641C474.546 714.901 485.57 717.094 496.703 717.094C507.836 717.094 518.859 714.901 529.145 710.641C539.43 706.381 548.776 700.136 556.648 692.264C564.52 684.392 570.764 675.046 575.025 664.761C579.285 654.476 581.478 643.452 581.478 632.319H749.136Z" fill="#037653"/>
<path d="M750.303 818.01C781.7 770.607 800 713.779 800 652.669C800 487.038 665.686 48.333 500 48.333C334.314 48.333 200 487.038 200 652.669C200 818.301 334.314 952.572 500 952.572C561.13 952.572 617.976 934.278 665.395 902.891L775.143 950.996C789.884 957.458 804.888 942.459 798.424 927.723L750.303 818.01ZM545.057 565.312C564.109 542.323 589.725 529.662 617.187 529.662C644.65 529.662 670.266 542.323 689.318 565.312C695.511 572.786 694.472 583.864 686.995 590.055C679.518 596.247 668.437 595.208 662.244 587.733C649.994 572.949 633.992 564.807 617.187 564.807C600.383 564.807 584.381 572.949 572.13 587.732C565.937 595.206 554.855 596.246 547.379 590.054C539.902 583.863 538.864 572.785 545.057 565.312ZM310.682 565.312C329.734 542.323 355.35 529.662 382.812 529.662C410.275 529.662 435.891 542.323 454.943 565.312C461.136 572.786 460.096 583.864 452.62 590.055C445.143 596.247 434.062 595.208 427.869 587.733C415.619 572.949 399.617 564.807 382.812 564.807C366.008 564.807 350.006 572.949 337.755 587.732C331.562 595.206 320.48 596.246 313.004 590.054C305.527 583.863 304.489 572.785 310.682 565.312ZM699.219 693.672H692.552C683.641 792.05 600.693 869.396 500 869.396C399.307 869.396 316.359 792.05 307.448 693.672H300.781C291.073 693.672 283.203 685.804 283.203 676.099C283.203 666.395 291.073 658.527 300.781 658.527H347.656C357.364 658.527 365.234 666.395 365.234 676.099C365.234 685.804 357.364 693.672 347.656 693.672H342.779C351.552 772.637 418.708 834.251 500 834.251C581.292 834.251 648.448 772.637 657.221 693.672H652.344C642.636 693.672 634.766 685.804 634.766 676.099C634.766 666.395 642.636 658.527 652.344 658.527H699.219C708.927 658.527 716.797 666.395 716.797 676.099C716.797 685.804 708.927 693.672 699.219 693.672Z" fill="#E7D005"/>
</svg>
